EESchema Schematic File Version 2
LIBS:power
LIBS:device
LIBS:transistors
LIBS:conn
LIBS:linear
LIBS:regul
LIBS:74xx
LIBS:cmos4000
LIBS:adc-dac
LIBS:memory
LIBS:xilinx
LIBS:microcontrollers
LIBS:dsp
LIBS:microchip
LIBS:analog_switches
LIBS:motorola
LIBS:texas
LIBS:intel
LIBS:audio
LIBS:interface
LIBS:digital-audio
LIBS:philips
LIBS:display
LIBS:cypress
LIBS:siliconi
LIBS:opto
LIBS:atmel
LIBS:contrib
LIBS:valves
LIBS:myLib
LIBS:w_analog
LIBS:w_device
LIBS:w_connectors
LIBS:Snow-EVSE-GW-cache
EELAYER 25 0
EELAYER END
$Descr A4 11693 8268
encoding utf-8
Sheet 1 1
Title "Snow EVSE controller"
Date "2017-02-12"
Rev "1"
Comp "Snow B.V."
Comment1 ""
Comment2 ""
Comment3 ""
Comment4 ""
$EndDescr
$Comp
L Screw_Terminal_1x03 J6
U 1 1 5895E6DB
P 5950 700
F 0 "J6" H 5950 1050 50  0000 C TNN
F 1 "230VAC" V 5800 700 50  0000 C TNN
F 2 "" H 5950 375 50  0001 C CNN
F 3 "" H 5925 800 50  0001 C CNN
	1    5950 700 
	0    1    1    0   
$EndComp
$Comp
L CONN_01X08 P1
U 1 1 5895E88A
P 1000 2700
F 0 "P1" H 1000 3150 50  0000 C CNN
F 1 "GL-iNEt" V 1100 2700 50  0000 C CNN
F 2 "" H 1000 2700 50  0000 C CNN
F 3 "" H 1000 2700 50  0000 C CNN
	1    1000 2700
	-1   0    0    1   
$EndComp
$Comp
L R R2
U 1 1 5895EDE0
P 1850 3150
F 0 "R2" V 1930 3150 50  0000 C CNN
F 1 "2.2k" V 1850 3150 50  0000 C CNN
F 2 "" V 1780 3150 50  0000 C CNN
F 3 "" H 1850 3150 50  0000 C CNN
	1    1850 3150
	1    0    0    -1  
$EndComp
$Comp
L R R1
U 1 1 5895EE33
P 1650 3150
F 0 "R1" V 1730 3150 50  0000 C CNN
F 1 "2.2k" V 1650 3150 50  0000 C CNN
F 2 "" V 1580 3150 50  0000 C CNN
F 3 "" H 1650 3150 50  0000 C CNN
	1    1650 3150
	1    0    0    -1  
$EndComp
$Comp
L +5V #PWR01
U 1 1 5895FD42
P 1350 2350
F 0 "#PWR01" H 1350 2200 50  0001 C CNN
F 1 "+5V" H 1350 2490 50  0000 C CNN
F 2 "" H 1350 2350 50  0000 C CNN
F 3 "" H 1350 2350 50  0000 C CNN
	1    1350 2350
	1    0    0    -1  
$EndComp
$Comp
L +3.3V #PWR02
U 1 1 5895FD71
P 1600 2350
F 0 "#PWR02" H 1600 2200 50  0001 C CNN
F 1 "+3.3V" H 1600 2490 50  0000 C CNN
F 2 "" H 1600 2350 50  0000 C CNN
F 3 "" H 1600 2350 50  0000 C CNN
	1    1600 2350
	1    0    0    -1  
$EndComp
$Comp
L GND #PWR03
U 1 1 5895FDA9
P 1350 3050
F 0 "#PWR03" H 1350 2800 50  0001 C CNN
F 1 "GND" H 1350 2900 50  0000 C CNN
F 2 "" H 1350 3050 50  0000 C CNN
F 3 "" H 1350 3050 50  0000 C CNN
	1    1350 3050
	1    0    0    -1  
$EndComp
Text Label 1300 2950 0    60   ~ 0
GPIO20
Text Label 1950 2950 0    60   ~ 0
SDA
Text Label 1300 2850 0    60   ~ 0
GPIO19
Text Label 1950 2850 0    60   ~ 0
SCL
$Comp
L +5V #PWR04
U 1 1 58960285
P 1750 3300
F 0 "#PWR04" H 1750 3150 50  0001 C CNN
F 1 "+5V" H 1750 3440 50  0000 C CNN
F 2 "" H 1750 3300 50  0000 C CNN
F 3 "" H 1750 3300 50  0000 C CNN
	1    1750 3300
	-1   0    0    1   
$EndComp
$Comp
L ULN2803 U2
U 1 1 58960D4B
P 3350 2900
F 0 "U2" H 3500 3450 60  0000 C CNN
F 1 "ULN2803" H 3600 3350 60  0000 C CNN
F 2 "" H 3350 2900 60  0000 C CNN
F 3 "" H 3350 2900 60  0000 C CNN
	1    3350 2900
	1    0    0    -1  
$EndComp
$Comp
L PCF8574 U1
U 1 1 58965699
P 2350 4900
F 0 "U1" H 2000 5500 50  0000 L CNN
F 1 "PCF8574" H 2450 5500 50  0000 L CNN
F 2 "" H 2350 4900 50  0000 C CNN
F 3 "" H 2350 4900 50  0000 C CNN
	1    2350 4900
	1    0    0    -1  
$EndComp
$Comp
L LED D2
U 1 1 5896585A
P 4500 2650
F 0 "D2" H 4500 2750 50  0000 C CNN
F 1 "HB LED" H 4500 2550 50  0000 C CNN
F 2 "" H 4500 2650 50  0000 C CNN
F 3 "" H 4500 2650 50  0000 C CNN
	1    4500 2650
	1    0    0    -1  
$EndComp
$Comp
L R_Network08 RN1
U 1 1 589658C0
P 3250 5500
F 0 "RN1" V 2750 5500 50  0000 C CNN
F 1 "10k" V 3650 5500 50  0000 C CNN
F 2 "Resistors_ThroughHole:Resistor_Array_SIP9" V 3725 5500 50  0001 C CNN
F 3 "" H 3250 5500 50  0000 C CNN
	1    3250 5500
	-1   0    0    1   
$EndComp
$Comp
L Buzzer BZ1
U 1 1 58965A57
P 4200 3350
F 0 "BZ1" H 4350 3400 50  0000 L CNN
F 1 "Buzzer" H 4350 3300 50  0000 L CNN
F 2 "" V 4175 3450 50  0000 C CNN
F 3 "" V 4175 3450 50  0000 C CNN
	1    4200 3350
	1    0    0    1   
$EndComp
$Comp
L Screw_Terminal_1x02 J1
U 1 1 58965DE5
P 1950 1550
F 0 "J1" H 1950 1800 50  0000 C TNN
F 1 "S0 kWh" V 1800 1550 50  0000 C TNN
F 2 "" H 1950 1325 50  0001 C CNN
F 3 "" H 1925 1550 50  0001 C CNN
	1    1950 1550
	0    1    1    0   
$EndComp
$Comp
L R R3
U 1 1 58965EBF
P 2050 3150
F 0 "R3" V 2130 3150 50  0000 C CNN
F 1 "10k" V 2050 3150 50  0000 C CNN
F 2 "" V 1980 3150 50  0000 C CNN
F 3 "" H 2050 3150 50  0000 C CNN
	1    2050 3150
	1    0    0    -1  
$EndComp
$Comp
L +5V #PWR05
U 1 1 58965F27
P 1850 1800
F 0 "#PWR05" H 1850 1650 50  0001 C CNN
F 1 "+5V" H 1850 1940 50  0000 C CNN
F 2 "" H 1850 1800 50  0000 C CNN
F 3 "" H 1850 1800 50  0000 C CNN
	1    1850 1800
	-1   0    0    1   
$EndComp
$Comp
L GND #PWR06
U 1 1 58966200
P 2050 3400
F 0 "#PWR06" H 2050 3150 50  0001 C CNN
F 1 "GND" H 2050 3250 50  0000 C CNN
F 2 "" H 2050 3400 50  0000 C CNN
F 3 "" H 2050 3400 50  0000 C CNN
	1    2050 3400
	1    0    0    -1  
$EndComp
Text Label 1300 2750 0    60   ~ 0
GPIO18
Text Label 2050 2100 1    60   ~ 0
S0_+
Text Label 1300 2650 0    60   ~ 0
GPIO22
Text Label 2200 2650 0    60   ~ 0
HB
$Comp
L +5V #PWR07
U 1 1 589667DB
P 5100 2500
F 0 "#PWR07" H 5100 2350 50  0001 C CNN
F 1 "+5V" H 5100 2640 50  0000 C CNN
F 2 "" H 5100 2500 50  0000 C CNN
F 3 "" H 5100 2500 50  0000 C CNN
	1    5100 2500
	0    1    1    0   
$EndComp
$Comp
L R R6
U 1 1 58966859
P 4850 2650
F 0 "R6" V 4930 2650 50  0000 C CNN
F 1 "560" V 4850 2650 50  0000 C CNN
F 2 "" V 4780 2650 50  0000 C CNN
F 3 "" H 4850 2650 50  0000 C CNN
	1    4850 2650
	0    1    1    0   
$EndComp
Text Label 1300 2550 0    60   ~ 0
GPIO21
$Comp
L R R5
U 1 1 589669DB
P 4850 2300
F 0 "R5" V 4930 2300 50  0000 C CNN
F 1 "560" V 4850 2300 50  0000 C CNN
F 2 "" V 4780 2300 50  0000 C CNN
F 3 "" H 4850 2300 50  0000 C CNN
	1    4850 2300
	0    1    1    0   
$EndComp
$Comp
L LED D1
U 1 1 58966A3C
P 4500 2300
F 0 "D1" H 4500 2400 50  0000 C CNN
F 1 "SSR LED" H 4500 2200 50  0000 C CNN
F 2 "" H 4500 2300 50  0000 C CNN
F 3 "" H 4500 2300 50  0000 C CNN
	1    4500 2300
	1    0    0    -1  
$EndComp
$Comp
L R R4
U 1 1 58966B73
P 3650 2000
F 0 "R4" V 3730 2000 50  0000 C CNN
F 1 "169" V 3650 2000 50  0000 C CNN
F 2 "" V 3580 2000 50  0000 C CNN
F 3 "" H 3650 2000 50  0000 C CNN
	1    3650 2000
	0    1    1    0   
$EndComp
Text Label 2200 2550 0    60   ~ 0
SSR
$Comp
L AQH2213 U3
U 1 1 5896747A
P 3700 1650
F 0 "U3" H 3700 1150 60  0000 C CNN
F 1 "AQH2213" H 3700 1650 60  0000 C CNN
F 2 "" H 3700 1650 60  0001 C CNN
F 3 "" H 3700 1650 60  0001 C CNN
	1    3700 1650
	0    -1   -1   0   
$EndComp
$Comp
L GND #PWR08
U 1 1 589676A9
P 4100 1900
F 0 "#PWR08" H 4100 1650 50  0001 C CNN
F 1 "GND" H 4100 1750 50  0000 C CNN
F 2 "" H 4100 1900 50  0000 C CNN
F 3 "" H 4100 1900 50  0000 C CNN
	1    4100 1900
	1    0    0    -1  
$EndComp
$Comp
L Screw_Terminal_1x02 J4
U 1 1 589676F1
P 3900 750
F 0 "J4" H 3900 1000 50  0000 C TNN
F 1 "EVSE" V 3750 750 50  0000 C TNN
F 2 "" H 3900 525 50  0001 C CNN
F 3 "" H 3875 750 50  0001 C CNN
	1    3900 750 
	0    1    1    0   
$EndComp
$Comp
L GND #PWR09
U 1 1 58967D02
P 3350 3550
F 0 "#PWR09" H 3350 3300 50  0001 C CNN
F 1 "GND" H 3350 3400 50  0000 C CNN
F 2 "" H 3350 3550 50  0000 C CNN
F 3 "" H 3350 3550 50  0000 C CNN
	1    3350 3550
	1    0    0    -1  
$EndComp
$Comp
L +5V #PWR010
U 1 1 58967D38
P 3350 2300
F 0 "#PWR010" H 3350 2150 50  0001 C CNN
F 1 "+5V" H 3350 2440 50  0000 C CNN
F 2 "" H 3350 2300 50  0000 C CNN
F 3 "" H 3350 2300 50  0000 C CNN
	1    3350 2300
	1    0    0    -1  
$EndComp
$Comp
L +5V #PWR011
U 1 1 589764E2
P 2350 4150
F 0 "#PWR011" H 2350 4000 50  0001 C CNN
F 1 "+5V" H 2350 4290 50  0000 C CNN
F 2 "" H 2350 4150 50  0000 C CNN
F 3 "" H 2350 4150 50  0000 C CNN
	1    2350 4150
	1    0    0    -1  
$EndComp
$Comp
L GND #PWR012
U 1 1 58976B23
P 2350 5700
F 0 "#PWR012" H 2350 5450 50  0001 C CNN
F 1 "GND" H 2350 5550 50  0000 C CNN
F 2 "" H 2350 5700 50  0000 C CNN
F 3 "" H 2350 5700 50  0000 C CNN
	1    2350 5700
	1    0    0    -1  
$EndComp
$Comp
L GND #PWR013
U 1 1 58976C4E
P 1700 4900
F 0 "#PWR013" H 1700 4650 50  0001 C CNN
F 1 "GND" H 1700 4750 50  0000 C CNN
F 2 "" H 1700 4900 50  0000 C CNN
F 3 "" H 1700 4900 50  0000 C CNN
	1    1700 4900
	1    0    0    -1  
$EndComp
Text Label 1650 4500 0    60   ~ 0
SCL
Text Label 1650 4600 0    60   ~ 0
SDA
$Comp
L +5V #PWR014
U 1 1 58977B58
P 4100 3450
F 0 "#PWR014" H 4100 3300 50  0001 C CNN
F 1 "+5V" H 4100 3590 50  0000 C CNN
F 2 "" H 4100 3450 50  0000 C CNN
F 3 "" H 4100 3450 50  0000 C CNN
	1    4100 3450
	-1   0    0    1   
$EndComp
$Comp
L +5V #PWR015
U 1 1 58977B90
P 3650 5700
F 0 "#PWR015" H 3650 5550 50  0001 C CNN
F 1 "+5V" H 3650 5840 50  0000 C CNN
F 2 "" H 3650 5700 50  0000 C CNN
F 3 "" H 3650 5700 50  0000 C CNN
	1    3650 5700
	-1   0    0    1   
$EndComp
Text Label 5950 1000 0    60   ~ 0
PE
Text Label 6150 1000 0    60   ~ 0
L
Text Label 5750 1000 0    60   ~ 0
N
$Comp
L GND #PWR016
U 1 1 58978311
P 5950 1200
F 0 "#PWR016" H 5950 950 50  0001 C CNN
F 1 "GND" H 5950 1050 50  0000 C CNN
F 2 "" H 5950 1200 50  0000 C CNN
F 3 "" H 5950 1200 50  0000 C CNN
	1    5950 1200
	1    0    0    -1  
$EndComp
Text Label 4000 1000 0    60   ~ 0
N
Text Label 3800 1000 0    60   ~ 0
L
$Comp
L HEADER_4 J2
U 1 1 5897A036
P 2000 6500
F 0 "J2" H 2000 6750 60  0000 C CNN
F 1 "OLED 1.3\"" V 2150 6500 60  0000 C CNN
F 2 "" H 2000 6500 60  0000 C CNN
F 3 "" H 2000 6500 60  0000 C CNN
	1    2000 6500
	0    1    1    0   
$EndComp
$Comp
L HEADER_4 J3
U 1 1 5897C287
P 2850 6500
F 0 "J3" H 2850 6750 60  0000 C CNN
F 1 "PN532 NFC" V 3000 6500 60  0000 C CNN
F 2 "" H 2850 6500 60  0000 C CNN
F 3 "" H 2850 6500 60  0000 C CNN
	1    2850 6500
	0    1    1    0   
$EndComp
$Comp
L +5V #PWR017
U 1 1 5897C36D
P 1500 6300
F 0 "#PWR017" H 1500 6150 50  0001 C CNN
F 1 "+5V" H 1500 6440 50  0000 C CNN
F 2 "" H 1500 6300 50  0000 C CNN
F 3 "" H 1500 6300 50  0000 C CNN
	1    1500 6300
	0    -1   -1   0   
$EndComp
$Comp
L GND #PWR018
U 1 1 5897C3A7
P 1300 6200
F 0 "#PWR018" H 1300 5950 50  0001 C CNN
F 1 "GND" H 1300 6050 50  0000 C CNN
F 2 "" H 1300 6200 50  0000 C CNN
F 3 "" H 1300 6200 50  0000 C CNN
	1    1300 6200
	0    1    1    0   
$EndComp
Text Label 1600 6100 0    60   ~ 0
SCA
Text Label 1600 6000 0    60   ~ 0
SDA
Wire Wire Line
	1200 2350 1350 2350
Wire Wire Line
	1600 2450 1200 2450
Wire Wire Line
	1600 2000 1600 2450
Wire Wire Line
	1200 3050 1350 3050
Wire Wire Line
	1200 2950 2150 2950
Wire Wire Line
	1200 2850 2150 2850
Wire Wire Line
	1200 2750 2150 2750
Wire Wire Line
	1200 2650 2950 2650
Wire Wire Line
	1200 2550 2950 2550
Connection ~ 1850 2950
Wire Wire Line
	1650 2850 1650 3000
Connection ~ 1650 2850
Wire Wire Line
	1850 3000 1850 2950
Wire Wire Line
	1650 3300 1850 3300
Connection ~ 1750 3300
Wire Wire Line
	2050 3300 2050 3400
Wire Wire Line
	2050 1750 2050 3000
Connection ~ 2050 2750
Wire Wire Line
	1850 1750 1850 1800
Wire Wire Line
	3750 2650 4350 2650
Wire Wire Line
	4650 2650 4700 2650
Wire Wire Line
	4650 2300 4700 2300
Wire Wire Line
	3350 2300 3350 2400
Wire Wire Line
	3350 3400 3350 3550
Wire Wire Line
	2350 4150 2350 4200
Wire Wire Line
	2350 5600 2350 5700
Wire Wire Line
	1850 4500 1600 4500
Wire Wire Line
	1850 4600 1600 4600
Wire Wire Line
	1700 4900 1850 4900
Wire Wire Line
	1850 4800 1850 5000
Connection ~ 1850 4900
Wire Wire Line
	2850 4500 2950 4500
Wire Wire Line
	2950 3250 2950 5300
Connection ~ 2950 4500
Wire Wire Line
	3750 3250 4100 3250
Wire Wire Line
	5950 900  5950 1200
Wire Wire Line
	5750 900  5750 1700
Wire Wire Line
	6150 1450 6150 900 
Wire Wire Line
	4000 950  4000 1200
Wire Wire Line
	4000 1200 5750 1200
Wire Wire Line
	4100 1450 7350 1450
Wire Wire Line
	3800 950  3800 1450
Wire Wire Line
	2850 4600 3800 4600
Wire Wire Line
	2850 4700 4400 4700
Wire Wire Line
	2850 4800 3800 4800
Wire Wire Line
	2850 4900 3800 4900
Wire Wire Line
	2850 5000 3800 5000
Wire Wire Line
	2850 5100 3800 5100
Wire Wire Line
	2850 5200 3800 5200
Wire Wire Line
	3050 5300 3050 4600
Connection ~ 3050 4600
Wire Wire Line
	3150 5300 3150 4700
Connection ~ 3150 4700
Wire Wire Line
	3250 5300 3250 4800
Connection ~ 3250 4800
Wire Wire Line
	3350 5300 3350 4900
Connection ~ 3350 4900
Wire Wire Line
	3450 5300 3450 5000
Connection ~ 3450 5000
Wire Wire Line
	3550 5300 3550 5100
Connection ~ 3550 5100
Wire Wire Line
	3650 5300 3650 5200
Connection ~ 3650 5200
Wire Wire Line
	1850 6400 1850 6300
Wire Wire Line
	1500 6300 2900 6300
Wire Wire Line
	1950 6200 1950 6400
Wire Wire Line
	1300 6200 3000 6200
Wire Wire Line
	2050 6400 2050 6100
Wire Wire Line
	1500 6100 2700 6100
Wire Wire Line
	2150 6400 2150 6000
Wire Wire Line
	1500 6000 2800 6000
Wire Wire Line
	3000 6200 3000 6400
Connection ~ 1950 6200
Wire Wire Line
	2900 6300 2900 6400
Connection ~ 1850 6300
Wire Wire Line
	2800 6000 2800 6400
Connection ~ 2150 6000
Wire Wire Line
	2700 6100 2700 6400
Connection ~ 2050 6100
Wire Wire Line
	5000 2300 5000 2650
Wire Wire Line
	5100 2500 5000 2500
Connection ~ 5000 2500
Wire Wire Line
	4100 1900 4100 1850
Wire Wire Line
	3900 1850 3900 2000
Wire Wire Line
	3900 2000 3800 2000
Wire Wire Line
	3800 1850 3800 1900
Wire Wire Line
	3800 1900 4100 1900
Wire Wire Line
	4000 1850 4000 1900
Connection ~ 4000 1900
Wire Wire Line
	2450 2550 2450 2000
Wire Wire Line
	2450 2000 3500 2000
Connection ~ 2450 2550
Wire Wire Line
	3750 2550 4100 2550
Wire Wire Line
	4100 2550 4100 2300
Wire Wire Line
	4100 2300 4350 2300
$Comp
L IRM-02 U5
U 1 1 589F9E5A
P 6400 2100
F 0 "U5" H 6400 1550 60  0000 C CNN
F 1 "IRM-02-5" H 6400 2150 60  0000 C CNN
F 2 "" H 6400 2100 60  0001 C CNN
F 3 "" H 6400 2100 60  0001 C CNN
	1    6400 2100
	1    0    0    -1  
$EndComp
$Comp
L IRM-02 U6
U 1 1 589F9F6A
P 7750 2100
F 0 "U6" H 7750 1550 60  0000 C CNN
F 1 "IRM-02-12" H 7750 2150 60  0000 C CNN
F 2 "" H 7750 2100 60  0001 C CNN
F 3 "" H 7750 2100 60  0001 C CNN
	1    7750 2100
	1    0    0    -1  
$EndComp
Wire Wire Line
	6000 2200 6000 1450
Connection ~ 6000 1450
Wire Wire Line
	7350 1450 7350 2200
Connection ~ 6150 1450
Wire Wire Line
	6800 2200 6800 1700
Wire Wire Line
	5750 1700 8150 1700
Connection ~ 5750 1200
Wire Wire Line
	8150 1700 8150 2200
Connection ~ 6800 1700
$Comp
L C C2
U 1 1 589FA915
P 6400 3300
F 0 "C2" V 6300 3100 50  0000 L CNN
F 1 "100nF" V 6550 3200 50  0000 L CNN
F 2 "" H 6438 3150 50  0000 C CNN
F 3 "" H 6400 3300 50  0000 C CNN
	1    6400 3300
	0    1    1    0   
$EndComp
$Comp
L C C5
U 1 1 589FA960
P 7800 3300
F 0 "C5" V 7900 3400 50  0000 L CNN
F 1 "100nF" V 7650 3150 50  0000 L CNN
F 2 "" H 7838 3150 50  0000 C CNN
F 3 "" H 7800 3300 50  0000 C CNN
	1    7800 3300
	0    -1   -1   0   
$EndComp
$Comp
L C C3
U 1 1 589FA9D7
P 6400 3650
F 0 "C3" V 6500 3750 50  0000 L CNN
F 1 "100nF" V 6250 3500 50  0000 L CNN
F 2 "" H 6438 3500 50  0000 C CNN
F 3 "" H 6400 3650 50  0000 C CNN
	1    6400 3650
	0    -1   -1   0   
$EndComp
$Comp
L CP C1
U 1 1 589FAC10
P 6400 2950
F 0 "C1" V 6500 3050 50  0000 L CNN
F 1 "10uF 16V" V 6250 2800 50  0000 L CNN
F 2 "" H 6438 2800 50  0000 C CNN
F 3 "" H 6400 2950 50  0000 C CNN
	1    6400 2950
	0    -1   -1   0   
$EndComp
$Comp
L CP C4
U 1 1 589FACD1
P 7800 2950
F 0 "C4" V 7850 3050 50  0000 L CNN
F 1 "10uF 16V" V 7650 2800 50  0000 L CNN
F 2 "" H 7838 2800 50  0000 C CNN
F 3 "" H 7800 2950 50  0000 C CNN
	1    7800 2950
	0    -1   -1   0   
$EndComp
$Comp
L GND #PWR019
U 1 1 589FC43E
P 8150 3700
F 0 "#PWR019" H 8150 3450 50  0001 C CNN
F 1 "GND" H 8150 3550 50  0000 C CNN
F 2 "" H 8150 3700 50  0000 C CNN
F 3 "" H 8150 3700 50  0000 C CNN
	1    8150 3700
	1    0    0    -1  
$EndComp
$Comp
L GND #PWR020
U 1 1 589FC486
P 6800 3750
F 0 "#PWR020" H 6800 3500 50  0001 C CNN
F 1 "GND" H 6800 3600 50  0000 C CNN
F 2 "" H 6800 3750 50  0000 C CNN
F 3 "" H 6800 3750 50  0000 C CNN
	1    6800 3750
	1    0    0    -1  
$EndComp
$Comp
L +12V #PWR021
U 1 1 589FC4E8
P 7350 3700
F 0 "#PWR021" H 7350 3550 50  0001 C CNN
F 1 "+12V" H 7350 3840 50  0000 C CNN
F 2 "" H 7350 3700 50  0000 C CNN
F 3 "" H 7350 3700 50  0000 C CNN
	1    7350 3700
	-1   0    0    1   
$EndComp
$Comp
L +5V #PWR022
U 1 1 589FC530
P 6000 3750
F 0 "#PWR022" H 6000 3600 50  0001 C CNN
F 1 "+5V" H 6000 3890 50  0000 C CNN
F 2 "" H 6000 3750 50  0000 C CNN
F 3 "" H 6000 3750 50  0000 C CNN
	1    6000 3750
	-1   0    0    1   
$EndComp
Wire Wire Line
	6000 2500 6000 3750
Wire Wire Line
	7350 2500 7350 3700
Wire Wire Line
	8150 2500 8150 3700
Wire Wire Line
	7650 2950 7350 2950
Connection ~ 7350 2950
Wire Wire Line
	7950 2950 8150 2950
Connection ~ 8150 2950
Wire Wire Line
	8150 3300 7950 3300
Connection ~ 8150 3300
Wire Wire Line
	7350 3300 7650 3300
Connection ~ 7350 3300
Wire Wire Line
	6800 2500 6800 3750
Wire Wire Line
	6550 2950 6800 2950
Connection ~ 6800 2950
Wire Wire Line
	6250 2950 6000 2950
Connection ~ 6000 2950
Wire Wire Line
	6250 3300 6000 3300
Connection ~ 6000 3300
Wire Wire Line
	6550 3300 6800 3300
Connection ~ 6800 3300
Wire Wire Line
	6550 3650 6800 3650
Connection ~ 6800 3650
Wire Wire Line
	5750 3650 6250 3650
Connection ~ 6000 3650
$Comp
L FAN3214 U4
U 1 1 58A0763A
P 4750 4600
F 0 "U4" H 4750 4400 60  0000 C CNN
F 1 "FAN3214" H 4750 4900 60  0000 C CNN
F 2 "" H 4750 4600 60  0000 C CNN
F 3 "" H 4750 4600 60  0000 C CNN
	1    4750 4600
	1    0    0    -1  
$EndComp
$Comp
L BAT54S D3
U 1 1 58A076DF
P 5450 4700
F 0 "D3" H 5500 4600 50  0000 C CNN
F 1 "BAT54S" H 5450 4800 50  0000 C CNN
F 2 "" H 5450 4700 50  0000 C CNN
F 3 "" H 5450 4700 50  0000 C CNN
	1    5450 4700
	0    1    -1   0   
$EndComp
$Comp
L BAT54S D4
U 1 1 58A077EE
P 5950 4500
F 0 "D4" H 6000 4400 50  0000 C CNN
F 1 "BAT54S" H 5950 4600 50  0000 C CNN
F 2 "" H 5950 4500 50  0000 C CNN
F 3 "" H 5950 4500 50  0000 C CNN
	1    5950 4500
	0    1    -1   0   
$EndComp
$Comp
L CP C6
U 1 1 58A0785D
P 7800 3600
F 0 "C6" H 7825 3700 50  0000 L CNN
F 1 "1000uF 16V" V 7650 3400 50  0000 L CNN
F 2 "" H 7838 3450 50  0000 C CNN
F 3 "" H 7800 3600 50  0000 C CNN
	1    7800 3600
	0    -1   -1   0   
$EndComp
$Comp
L Screw_Terminal_1x02 J5
U 1 1 58A08B70
P 5500 5850
F 0 "J5" H 5500 6100 50  0000 C TNN
F 1 "Sol.Lock" V 5350 5850 50  0000 C TNN
F 2 "" H 5500 5625 50  0001 C CNN
F 3 "" H 5475 5850 50  0001 C CNN
	1    5500 5850
	0    -1   -1   0   
$EndComp
Wire Wire Line
	7950 3600 8400 3600
Connection ~ 8150 3600
Wire Wire Line
	7100 3600 7650 3600
Connection ~ 7350 3600
Wire Wire Line
	4400 4500 3800 4500
Wire Wire Line
	3800 4500 3800 4600
Wire Wire Line
	5050 4700 5250 4700
$Comp
L +12V #PWR023
U 1 1 58A0CDC2
P 5200 4000
F 0 "#PWR023" H 5200 3850 50  0001 C CNN
F 1 "+12V" H 5200 4140 50  0000 C CNN
F 2 "" H 5200 4000 50  0000 C CNN
F 3 "" H 5200 4000 50  0000 C CNN
	1    5200 4000
	1    0    0    -1  
$EndComp
$Comp
L GND #PWR024
U 1 1 58A0CE8B
P 4700 5200
F 0 "#PWR024" H 4700 4950 50  0001 C CNN
F 1 "GND" H 4700 5050 50  0000 C CNN
F 2 "" H 4700 5200 50  0000 C CNN
F 3 "" H 4700 5200 50  0000 C CNN
	1    4700 5200
	1    0    0    -1  
$EndComp
Wire Wire Line
	4400 4600 4400 5200
Wire Wire Line
	4400 5200 5950 5200
Wire Wire Line
	5950 5200 5950 4800
Connection ~ 4700 5200
Wire Wire Line
	5450 5000 5450 5200
Connection ~ 5450 5200
Wire Wire Line
	5200 4000 5200 4600
Wire Wire Line
	5200 4200 5950 4200
Connection ~ 5200 4200
Wire Wire Line
	5200 4600 5050 4600
Wire Wire Line
	5450 4400 5450 4200
Connection ~ 5450 4200
Wire Wire Line
	5050 4500 5750 4500
Wire Wire Line
	5150 4700 5150 5650
Wire Wire Line
	5150 5650 5400 5650
Connection ~ 5150 4700
Wire Wire Line
	5600 5650 5600 4500
Connection ~ 5600 4500
NoConn ~ 2950 2750
NoConn ~ 2950 2850
NoConn ~ 2950 2950
NoConn ~ 2950 3050
NoConn ~ 2950 3150
NoConn ~ 3750 3150
NoConn ~ 3750 3050
NoConn ~ 3750 2950
NoConn ~ 3750 2850
NoConn ~ 3750 2750
NoConn ~ 4000 1450
NoConn ~ 1850 5300
$Comp
L PWR_FLAG #FLG?
U 1 1 58A15F0C
P 8400 3600
F 0 "#FLG?" H 8400 3695 50  0001 C CNN
F 1 "PWR_FLAG" H 8400 3780 50  0000 C CNN
F 2 "" H 8400 3600 50  0000 C CNN
F 3 "" H 8400 3600 50  0000 C CNN
	1    8400 3600
	1    0    0    -1  
$EndComp
$Comp
L PWR_FLAG #FLG?
U 1 1 58A15F5E
P 7100 3600
F 0 "#FLG?" H 7100 3695 50  0001 C CNN
F 1 "PWR_FLAG" H 7100 3780 50  0000 C CNN
F 2 "" H 7100 3600 50  0000 C CNN
F 3 "" H 7100 3600 50  0000 C CNN
	1    7100 3600
	1    0    0    -1  
$EndComp
$Comp
L PWR_FLAG #FLG?
U 1 1 58A15FB0
P 5750 3650
F 0 "#FLG?" H 5750 3745 50  0001 C CNN
F 1 "PWR_FLAG" H 5750 3830 50  0000 C CNN
F 2 "" H 5750 3650 50  0000 C CNN
F 3 "" H 5750 3650 50  0000 C CNN
	1    5750 3650
	1    0    0    -1  
$EndComp
$Comp
L PWR_FLAG #FLG?
U 1 1 58A16002
P 1600 2000
F 0 "#FLG?" H 1600 2095 50  0001 C CNN
F 1 "PWR_FLAG" H 1600 2180 50  0000 C CNN
F 2 "" H 1600 2000 50  0000 C CNN
F 3 "" H 1600 2000 50  0000 C CNN
	1    1600 2000
	1    0    0    -1  
$EndComp
Connection ~ 1600 2350
$EndSCHEMATC
